<?xml version="1.0" encoding="utf-8"?>
<!-- Generator: Adobe Illustrator 22.0.0, SVG Export Plug-In . SVG Version: 6.00 Build 0)  -->
<svg version="1.1" id="图层_1" xmlns="http://www.w3.org/2000/svg" xmlns:xlink="http://www.w3.org/1999/xlink" x="0px" y="0px"
	 viewBox="0 0 200 200" style="enable-background:new 0 0 200 200;" xml:space="preserve">
<style type="text/css">
</style>
<path class="st0" d="M164.4,23.8h-32.8c-5-17.5-23.4-27.6-40.9-22.5C79.9,4.5,71.3,12.9,68.2,23.8H35.5c-12.9,0-23.6,10.6-23.6,23.5
	v129.2c0,12.9,10.6,23.5,23.6,23.5h129.1c12.9,0,23.6-10.6,23.6-23.5V47.3C188,34.4,177.4,23.8,164.4,23.8z M106,140.2H55.8
	c-5,0-9.2-4.1-9.2-9.2c0-5,4.1-9.2,9.2-9.2H106c5,0,9.2,4.1,9.2,9.2C115.2,136.1,111.1,140.2,106,140.2z M99.9,20.3
	c6.9,0,12.6,5.6,12.6,12.6s-5.6,12.6-12.6,12.6c-6.9,0-12.6-5.5-12.6-12.4S93,20.3,99.9,20.3z M144.1,81.5c5,0,9.2,4.1,9.2,9.2
	c0,5.1-4.1,9.2-9.2,9.2H55.8c-5,0-9.2-4.1-9.2-9.2c0-5.1,4.1-9.2,9.2-9.2H144.1z"/>
</svg>
