<?xml version="1.0" encoding="utf-8"?>
<!-- Generator: Adobe Illustrator 22.0.0, SVG Export Plug-In . SVG Version: 6.00 Build 0)  -->
<svg version="1.1" id="图层_1" xmlns="http://www.w3.org/2000/svg" xmlns:xlink="http://www.w3.org/1999/xlink" x="0px" y="0px"
	 viewBox="0 0 200 200" style="enable-background:new 0 0 200 200;" xml:space="preserve">
<style type="text/css">
</style>
<g>
	<path class="st0" d="M191.1,72.1l-9.9-59.3c-1.5-6.5-9.6-8.9-14.4-4.3l-10,9.5c-1.8,1.7-4.6,2-6.8,0.7c-5.8-3.7-12-6.7-18.5-9.1
		C80.3-9.3,23.5,16.9,4.6,68.1C2.5,73.7,1,79.3,0,85c23.7-40.6,73.8-59.6,119.4-42.7c0,0,0,0,0.1,0c3.9,1.4,4.8,6.4,1.9,9.2
		l-3.9,3.7c-4.9,4.6-2.9,12.7,3.5,14.6l59.2,12.7C186.5,84.4,192.6,78.6,191.1,72.1L191.1,72.1z"/>
	<path class="st0" d="M8.9,127.9l9.9,59.3c1.5,6.5,9.6,8.9,14.4,4.3l10-9.5c1.8-1.7,4.6-2,6.8-0.7c5.8,3.7,12,6.7,18.5,9.1
		c51.2,18.9,108-7.3,126.9-58.5c2.1-5.6,3.6-11.2,4.6-16.8c-23.7,40.6-73.8,59.6-119.4,42.7c0,0,0,0-0.1,0c-3.9-1.4-4.8-6.4-1.9-9.2
		l3.9-3.7c4.9-4.6,2.9-12.7-3.5-14.6l-59.2-12.7C13.5,115.6,7.4,121.4,8.9,127.9L8.9,127.9z"/>
</g>
</svg>
